((("cor_or" .
   [1 0 0 0 0 0])
  ("cor_xor" .
   [1 0 0 0 0 0 0])
  ("cor_and" .
   [1 0 0 0 0 0 0])
  ("cor_sub" .
   [1 0 0 0 0 0 0])
  ("my_int_to_str" .
   [1 0 0 0 0 0 0 0 0 0 0 0 0])
  ("reg2" .
   [1 0 0 0])
  ("reg1" .
   [1 0 0 0])
  ("reg" .
   [1 0 0])
  ("tmp3" .
   [5 0 0 0])
  ("COR_EUX" .
   [0 0 1 0 0 0 0])
  ("hexdump" .
   [0 0 0 1 0 0 0])
  ("./champions/AsmX" .
   [0 0 0 0 0 0 0 0 0 0 0 0 0 0 0 1])
  ("./champions/" .
   [0 0 0 0 1 0 0 0 0 0 0 0])
  ("EUX" .
   [2 0 1])
  ("/home/public/valgrind" .
   [0 0 0 0 0 0 0 0 0 0 0 0 0 0 0 1 0 0 0 0 0])
  ("COR_ERROR" .
   [4 0 0 0 0 0 0 0 0])
  ("COR_OUT" .
   [0 0 1 1 1 0 0])
  ("/tmp/corewar-tester-dump" .
   [0 0 0 0 0 0 0 0 0 0 0 0 0 0 0 0 0 0 0 0 0 0 0 1])
  ("COR_FILE" .
   [0 0 0 1 0 0 0 0])
  ("NB_TEST" .
   [0 0 1 0 0 0 0])
  ("/home/public/VMref/" .
   [0 0 0 0 0 0 0 0 0 0 0 0 0 1 0 0 0 0 1])
  ("/home/public/" .
   [0 0 0 0 0 0 0 0 2 0 0 0 0])
  ("~/tmp/-rf coucou" .
   [0 0 0 0 0 0 1 0 0 0 0 0 0 0 0 0])
  ("~/tmp/" .
   [0 0 0 0 1 0])
  ("../champions/" .
   [0 0 0 0 0 1 0 0 0 0 1 0 0])
  ("../asm" .
   [0 0 0 0 0 1])
  ("../corewar" .
   [0 0 0 0 0 1 0 0 0 0])
  ("cycles_left" .
   [0 0 2 0 0 0 0 0 1 0 0])
  ("CYCLE_TO_DIE" .
   [0 0 0 0 0 0 0 0 0 0 0 1])
  ("father_num" .
   [0 0 0 0 0 0 0 0 0 1])
  ("live_nb" .
   [1 0 0 0 0 0 1])
  ("4" .
   [1])
  ("NBF" .
   [1 0 0])
  ("(int __fd, __off_t __offset, int __whence)" .
   [0 0 0 0 0 0 0 0 0 0 0 0 0 0 0 0 0 0 0 0 0 0 0 0 0 0 0 0 0 0 0 0 0 0 0 0 0 0 0 0 0 1])
  ("lseek" .
   [0 0 0 0 1])
  ("acct" .
   [1 0 0 0])
  ("replace_mem" .
   [0 0 0 0 1 0 0 0 0 0 0])
  ("initstate" .
   [0 0 1 0 0 0 0 0 0])
  ("actual_pos" .
   [4 0 0 1 2 0 0 0 0 5])
  ("atol" .
   [0 0 1 0])
  ("init_pos" .
   [1 0 0 0 0 0 0 2])
  ("pos" .
   [10 0 0])
  ("nbr_prog" .
   [0 0 0 2 0 0 0 0])
  ("default" .
   [0 0 0 0 0 0 1])
  ("ushort" .
   [1 0 0 0 0 0])
  ("load_cor_file" .
   [0 0 0 0 0 0 0 0 0 0 0 0 2])
  ("vm" .
   [6 0])
  ("RES" .
   [1 0 0])
  ("volnoti-show" .
   [0 0 0 1 0 0 0 0 0 0 0 0])
  ("TRYAGAIN" .
   [0 0 0 3 1 0 0 0])
  ("Not" .
   [1 0 0])
  ("RETURN" .
   [1 0 0 0 0 0])
  ("--question" .
   [1 0 0 0 0 0 0 0 0 0])
  ("--timeout" .
   [0 0 0 0 0 1 0 0 0])
  ("my_countdown" .
   [0 0 0 0 1 0 0 0 0 0 0 0])
  ("ACTION" .
   [0 0 1 0 0 0])
  ("200" .
   [1 0 0])
  ("Reboot" .
   [2 0 0 0 0 0])
  ("Shutdown" .
   [1 0 0 0 0 0 0 1])
  ("my_error" .
   [2 0 0 0 0 0 0 0])
  ("catch_sigusr1" .
   [0 0 0 0 0 0 0 0 0 0 0 0 1])
  ("SIG_IGN" .
   [0 0 0 0 1 0 0])
  ("SI_USER" .
   [1 0 0 0 0 0 0])
  ("error_wait" .
   [1 0 0 2 0 0 0 0 0 0])
  ("EXIT_FAILURE" .
   [0 0 0 1 0 0 0 0 0 0 0 0])
  ("FPE_INTDIV" .
   [1 0 0 0 0 0 0 0 0 0])
  ("SI_TKILL" .
   [0 0 0 1 0 0 0 0])
  ("kill" .
   [1 0 0 0])
  ("union" .
   [0 0 1 0 0])
  ("ttyslot" .
   [0 1 0 0 0 0 0])
  ("units" .
   [1 0 0 0 4])
  ("unistd" .
   [0 0 0 0 1 0])
  ("tens" .
   [0 0 5 0])
  ("letter" .
   [4 0 0 1 0 0])
  ("init" .
   [1 0 0 12])
  ("inline" .
   [0 0 0 0 0 1])
  ("g_serv" .
   [1 0 10 8 0 6])
  ("md5sum" .
   [1 0 0 0 0 0])
  ("13" .
   [1 2])
  ("have_event_now" .
   [1 0 0 0 0 0 0 0 0 0 0 0 0 0])
  ("p_num" .
   [1 0 0 0 1])
  ("prog" .
   [0 0 0 2])
  ("put_param" .
   [0 0 0 0 0 1 0 0 0])
  ("p_name" .
   [0 0 0 0 0 1])
  ("a" .
   [2])
  ("dump" .
   [0 1 0 0])
  ("v" .
   [11])
  ("t_vm" .
   [2 0 0 0])
  ("long" .
   [1 0 0 1])
  ("my_" .
   [0 1 0])
  ("load_addr" .
   [0 1 2 0 0 1 0 0 3])
  ("prog_name" .
   [2 1 0 0 0 0 0 0 2])
  ("STDERR" .
   [0 0 1 0 0 0])
  ("p" .
   [21])
  ("my_put_nbr" .
   [1 0 0 0 0 0 1 0 0 2])
  ("(char *str, int fd)" .
   [0 0 0 0 0 0 0 0 0 0 0 0 0 0 0 0 0 0 1])
  ("(char *str)" .
   [0 0 0 0 0 0 0 0 0 0 1])
  ("my_getnbr" .
   [0 0 0 0 0 0 4 0 1])
  ("prog_num" .
   [0 0 0 0 0 0 0 3])
  ("MALLOCERR" .
   [0 0 0 1 0 0 0 0 0])
  ("usage" .
   [1 0 2 0 2])
  ("init_t_prog" .
   [0 0 1 1 0 1 0 0 0 0 0])
  ("progs" .
   [13 0 3 2 9])
  ("t_prog" .
   [0 1 1 3 1 1])
  ("tmp_new" .
   [0 0 1 0 0 1 0])
  ("3" .
   [6])
  ("new_str" .
   [0 0 1 0 0 0 0])
  ("SECTION" .
   [0 0 1 0 0 0 0])
  ("forked_wait" .
   [0 0 0 0 0 0 0 0 0 0 1])
  ("close" .
   [5 0 0 0 0])
  ("m_pipe" .
   [3 0 7 2 1 2])
  ("pipe" .
   [6 0 0 0])
  ("print_usage" .
   [0 0 0 0 0 0 1 0 0 0 0])
  ("create_grid" .
   [0 0 1 0 0 0 0 0 0 0 0])
  ("my_print_error_chret" .
   [3 0 0 0 0 0 0 0 0 0 0 0 0 0 0 0 0 0 0 0])
  ("PERRCOLNO" .
   [0 0 1 0 0 0 0 0 0])
  ("my_print_error" .
   [0 0 0 0 0 0 0 0 0 0 0 1 0 2])
  ("(char nb)" .
   [0 0 0 0 0 0 0 0 1])
  ("print_modified_count" .
   [0 0 0 0 1 0 0 0 0 0 0 0 0 0 0 0 0 0 0 0])
  ("ig" .
   [11 0])
  ("line" .
   [9 0 0 0])
  ("sizeof" .
   [1 0 0 0 0 3])
  ("grid" .
   [7 0 0 0])
  ("get_grid" .
   [0 0 0 1 0 0 0 0])
  ("var_idx" .
   [2 0 0 0 0 0 2])
  ("free_tab" .
   [2 0 0 0 0 0 1 1])
  ("MAINDIR/.tmp" .
   [0 0 0 0 0 0 0 0 0 0 1 0])
  ("rawurlencode" .
   [0 0 0 2 0 0 0 0 0 0 0 0])
  ("y" .
   [3])
  ("x" .
   [3])
  ("PLANNING0" .
   [0 0 0 1 0 0 0 0 0])
  ("--warning" .
   [1 0 1 0 0 0 0 0 0])
  ("have_event" .
   [1 0 0 0 0 0 0 0 0 0])
  ("600" .
   [1 0 0])
  ("NUMERODELIGNE+3" .
   [1 0 0 0 0 0 0 0 0 0 0 0 0 0 0])
  ("TYPE" .
   [2 0 0 0])
  ("NUMERODELIGNE" .
   [0 0 1 2 0 0 0 0 0 0 0 0 0])
  ("LINENO" .
   [2 0 0 0 1 0])
  ("PLANNING" .
   [0 0 5 3 1 0 0 0])
  ("have_event_soon" .
   [0 0 0 0 0 0 1 1 0 0 0 0 0 0 1])
  ("GREEN" .
   [1 0 0 0 0])
  ("EVENT" .
   [13 0 0 0 0])
  ("THEN" .
   [1 0 0 0])
  ("NOW" .
   [2 0 0])
  ("TTL" .
   [4 0 0])
  ("+%s" .
   [5 0 0])
  ("date" .
   [6 0 0 0])
  ("MYDATE" .
   [3 0 0 0 0 0])
  ("START" .
   [8 0 0 1 0])
  ("test" .
   [4 0 0 0])
  ("dir" .
   [2 0 0])
  ("dict" .
   [1 0 0 0])
  ("status_code" .
   [0 0 0 0 0 0 0 0 0 0 1])
  ("post" .
   [1 0 0 0])
  ("cookies" .
   [9 0 0 0 0 0 0])
  ("get_planning" .
   [0 0 0 0 1 0 2 0 0 0 0 0])
  ("get_cookie" .
   [1 0 0 0 0 0 0 0 0 0])
  ("not" .
   [2 0 0])
  ("is" .
   [10 0])
  ("resp" .
   [3 0 0 1])
  ("commejeveux" .
   [0 0 0 0 0 0 0 0 0 0 1])
  ("login" .
   [2 0 0 0 0])
  ("val" .
   [1 0 0])
  ("url" .
   [4 0 0])
  ("requests" .
   [2 0 0 0 0 0 0 0])
  ("echomoi" .
   [1 0 0 0 0 0 0])
  ("passwd" .
   [6 0 0 0 0 0])
  ("getpass" .
   [2 0 0 0 0 0 0])
  ("main" .
   [6 0 0 0])
  ("user" .
   [4 0 0 0])
  ("input" .
   [3 0 0 0 0])
  ("pass" .
   [3 0 0 0])
  ("def" .
   [5 0 0])
  ("from" .
   [1 0 0 0])
  ("bin" .
   [1 0 0])
  ("say_hi" .
   [1 0 0 0 0 0])
  ("gtk_signal_connect_object" .
   [0 0 0 0 0 0 0 0 0 0 0 0 0 0 0 0 0 0 0 1 0 0 0 0 0])
  ("gtk_widget_show" .
   [1 0 0 0 0 0 0 0 0 0 0 0 0 0 0])
  ("GTK_WINDOW_TOPLEVEL" .
   [0 0 0 0 0 1 0 0 0 0 0 0 0 0 0 0 0 0 0])
  ("GTK_CONTAINER" .
   [1 0 0 0 0 0 0 0 0 0 0 0 0])
  ("gtk_container_set_border_width" .
   [0 0 0 0 0 0 0 0 0 0 0 0 0 0 0 0 0 0 0 0 0 0 0 0 0 0 0 0 0 1])
  ("GTK_OBJECT" .
   [0 0 0 0 1 0 0 0 0 2])
  ("gtk_window_new" .
   [0 0 0 0 0 0 0 0 0 0 0 0 1 0])
  ("button" .
   [5 0 1 0 0 0])
  ("window" .
   [3 0 0 0 0 0])
  ("EOC" .
   [2 0 0])
  ("my_dual_printf" .
   [0 0 0 0 0 0 1 0 0 0 0 0 0 0])
  ("const" .
   [0 0 0 0 2])
  ("11" .
   [4 0])
  ("ignore" .
   [0 0 0 0 0 1])
  ("get_user" .
   [1 0 1 0 0 0 0 0])
  ("tmpo" .
   [1 0 0 0])
  ("tmpi" .
   [1 0 0 0])
  ("append_io" .
   [0 0 0 0 0 0 0 0 1])
  ("add_alias" .
   [0 0 0 0 0 1 0 0 0])
  ("add_output" .
   [1 0 0 0 0 0 0 0 0 1])
  ("inpt" .
   [2 0 3 4])
  ("outpt" .
   [1 0 4 0 1])
  ("initstate_r" .
   [0 0 1 0 0 0 0 0 0 0 0])
  ("add_input" .
   [0 0 0 0 0 0 1 0 1])
  ("n" .
   [1])
  ("on_exit" .
   [1 0 0 0 0 0 0])
  ("old" .
   [17 0 1])
  ("-n1" .
   [4 0 0])
  ("-z" .
   [3 0])
  ("head" .
   [4 0 0 0])
  (".pcregrep.norme" .
   [0 0 1 0 0 0 0 0 0 0 0 0 0 0 0])
  ("MYVERYOWNTHING" .
   [0 0 5 1 0 0 0 0 0 0 0 0 0 0])
  ("-E" .
   [3 0])
  ("VARLEN" .
   [8 0 1 1 1 1])
  ("grep" .
   [8 0 0 0])
  ("elif" .
   [2 0 0 0])
  ("LINES" .
   [5 0 0 0 0])
  ("MODE" .
   [4 0 0 0])
  ("-eq" .
   [6 0 0])
  ("LINE" .
   [5 0 0 0])
  ("0-9" .
   [1 0 0])
  ("function_length" .
   [0 0 0 0 0 0 0 0 0 0 0 0 0 0 2])
  ("VAR1" .
   [3 0 0 0])
  ("MAGENTA" .
   [2 0 0 0 0 0 0])
  ("interdite" .
   [1 0 0 0 0 0 0 0 0])
  ("fonction" .
   [1 0 0 0 0 0 0 0])
  ("N2VAR" .
   [0 0 1 0 0])
  ("N1VAR" .
   [0 0 2 0 0])
  ("-ne" .
   [5 0 0])
  ("print" .
   [24 0 0 0 1])
  ("NVAR" .
   [1 0 0 0])
  ("ligne" .
   [3 0 0 0 0])
  ("s/" .
   [2 0])
  ("sed" .
   [11 0 0])
  ("basename" .
   [1 0 0 0 0 0 0 0])
  ("VAR" .
   [16 0 0])
  ("awk" .
   [13 0 0])
  ("TMP" .
   [8 0 0])
  ("MYLINE" .
   [2 0 1 0 0 0])
  ("for" .
   [9 0 0])
  ("NB_ERROR" .
   [0 0 1 1 0 0 0 1])
  ("ADDIT" .
   [1 0 0 0 0])
  ("TEST" .
   [6 0 0 0])
  ("cat" .
   [28 0 0])
  ("CYAN" .
   [2 0 0 0])
  ("YELLOW" .
   [0 0 0 1 0 0])
  ("ALLOWED" .
   [1 0 2 2 2 0 0])
  ("NMTMP" .
   [1 0 1 1 0])
  ("SYMBOLS" .
   [1 0 2 2 0 0 0])
  ("find" .
   [0 0 9 0])
  ("FUNCT" .
   [6 0 0 1 3])
  ("done" .
   [13 0 3 0])
  ("do" .
   [4 0])
  ("FUNCTIONS" .
   [0 0 0 1 0 0 0 0 0])
  ("PROJECT" .
   [1 0 0 2 1 0 1])
  ("/dev/null" .
   [4 0 0 0 0 0 0 0 0])
  ("test_conf_dir" .
   [0 0 1 0 0 0 0 0 0 0 0 0 0])
  ("BRED" .
   [8 0 0 1])
  ("PASS" .
   [7 0 0 0])
  ("REPO" .
   [1 0 0 0])
  ("map" .
   [2 0 0])
  ("init_game" .
   [0 0 0 1 0 0 0 0 0])
  ("redirections" .
   [0 0 0 0 0 0 1 0 0 0 0 0])
  ("t_cs" .
   [5 0 0 0])
  ("System" .
   [0 0 1 0 0 0])
  ("Scanner" .
   [3 0 1 0 0 0 0])
  ("import" .
   [3 0 0 0 0 0])
  ("class" .
   [1 0 1 0 0])
  ("public" .
   [2 0 0 0 0 0])
  ("protected" .
   [0 0 0 0 0 1 0 0 0])
  ("fd" .
   [58 0])
  ("read_till_n" .
   [0 0 0 0 0 0 0 0 0 0 1])
  ("file" .
   [6 0 0 0])
  ("t_output" .
   [1 0 0 0 0 0 0 0])
  ("t_cmd" .
   [6 0 0 0 3])
  ("s_input" .
   [0 0 0 0 1 0 0])
  ("t_input" .
   [1 0 0 0 2 0 0])
  ("BUFSIZ" .
   [1 0 2 1 0 0])
  ("RIGHT" .
   [1 0 0 0 0])
  ("move_curs_lr" .
   [0 0 0 0 1 0 0 0 0 0 0 0])
  ("move" .
   [0 0 0 1])
  ("67" .
   [2 0])
  ("68" .
   [2 0])
  ("define" .
   [21 0 0 0 0 0])
  ("LEFT" .
   [1 0 0 0])
  ("DIR" .
   [2 0 0])
  ("ECHO" .
   [1 0 0 0])
  ("ICANON" .
   [2 0 0 0 0 0])
  ("s" .
   [38])
  ("term" .
   [5 0 0 0])
  ("termios" .
   [0 0 0 2 0 0 0])
  ("raw_mode" .
   [1 0 0 0 0 0 0 0])
  ("IEXTEN" .
   [0 0 0 1 0 0])
  ("ECHOE" .
   [1 0 0 0 1])
  ("255" .
   [2 0 0])
  ("read" .
   [17 0 0 0])
  ("WHITE" .
   [10 0 0 1 0])
  ("RED" .
   [1 0 0])
  ("echo" .
   [176 0 0 0])
  ("ret_sel" .
   [2 0 0 0 0 0 1])
  ("static" .
   [25 0 0 0 0 2])
  ("argc" .
   [1 0 0 0])
  ("126" .
   [1 0 0])
  ("127" .
   [2 0 0])
  ("fflush" .
   [0 0 0 0 0 1])
  ("d" .
   [3])
  ("FAILURE" .
   [3 4 16 2 1 0 4])
  ("(int *nb, char **argv, int ac, t_list *tmp)" .
   [0 0 0 0 0 0 0 0 0 0 0 0 0 0 0 0 0 0 0 0 0 0 0 0 0 0 0 0 0 0 0 0 0 0 0 0 0 0 0 0 0 0 1])
  ("OFF" .
   [1 0 0])
  ("move_down" .
   [0 0 0 0 0 0 1 1 0])
  ("move_curs" .
   [0 0 0 0 0 0 1 0 3])
  ("i" .
   [117])
  ("nb" .
   [27 0])
  ("put_off" .
   [1 0 0 0 0 0 0])
  ("var" .
   [9 0 0])
  ("len" .
   [15 0 1])
  ("prev" .
   [7 0 0 0])
  ("remove_from_list" .
   [0 0 0 0 1 0 0 0 0 0 0 0 0 0 0 0])
  ("remove" .
   [1 0 0 0 0 0])
  ("print_list" .
   [0 0 0 0 1 0 0 0 0 1])
  ("66" .
   [2 0])
  ("91" .
   [1 0])
  ("printf" .
   [14 0 0 0 0 0])
  ("34" .
   [1 0])
  ("65" .
   [1 0])
  ("2" .
   [25])
  ("1" .
   [84])
  ("argv" .
   [1 0 0 0])
  ("ON" .
   [6 0])
  ("if" .
   [35 0])
  ("else" .
   [61 0 0 0])
  ("on" .
   [8 1])
  ("t_list" .
   [10 0 2 0 1 0])
  ("s_list" .
   [1 0 0 0 0 0])
  ("typedef" .
   [3 0 3 2 0 2 1])
  ("struct" .
   [15 1 0 3 1 2])
  ("man" .
   [1 0 0])
  ("alias" .
   [3 0 0 0 0])
  ("sleep" .
   [3 0 0 0 0])
  ("goto" .
   [0 1 0 0])
  ("get_distance_nxt" .
   [0 0 0 0 1 0 0 0 0 0 0 0 0 0 0 0])
  ("yasnippet" .
   [0 0 0 1 0 0 0 0 0])
  ("require" .
   [1 0 0 0 0 0 0])
  ("mx" .
   [1 0])
  ("move_me" .
   [0 0 0 0 0 0 1])
  ("auto-complete-mode" .
   [1 0 0 0 0 0 0 0 0 0 0 0 0 0 0 0 0 1])
  ("sha1" .
   [1 0 0 0])
  ("show-buffer" .
   [1 0 0 0 0 0 0 0 0 0 0])
  ("auto-fill-mode" .
   [0 0 0 1 0 0 0 0 0 0 0 0 0 0])
  ("auto-fill-function" .
   [0 0 0 0 0 0 1 0 0 0 0 0 0 0 0 0 0 0])
  ("then" .
   [36 0 0 1])
  ("ac" .
   [16 0])
  ("av" .
   [19 0])
  ("return" .
   [68 0 0 0 1 1])
  ("int" .
   [183 0 2])
  ("red" .
   [2 0 0])
  ("void" .
   [29 0 0 0])
  ("my_putchar" .
   [11 0 0 0 0 0 0 2 0 1])
  ("char" .
   [148 0 1 0])
  ("tgoto" .
   [1 0 0 1 0])
  ("extern" .
   [0 0 0 0 1 0])
  ("BC" .
   [1 0])
  ("20" .
   [2 0])
  ("write" .
   [9 0 0 0 1])
  ("c" .
   [55])
  ("tputs" .
   [4 0 0 0 0])
  ("param" .
   [3 0 0 0 0])
  ("str" .
   [16 0 0])
  ("tgetstr" .
   [2 0 0 0 0 1 0])
  ("NULL" .
   [27 0 0 0])
  ("my_putattr" .
   [1 0 0 0 0 0 0 0 0 0])
  ("my_putstr" .
   [17 0 0 0 0 3 0 0 2])
  ("(const char *, int, int)" .
   [0 0 0 0 0 0 0 0 0 0 0 0 0 0 0 0 0 0 0 0 0 0 0 1])
  ("10" .
   [16 1])
  ("my_strlen" .
   [6 0 0 0 0 0 2 0 1])
  ("(char *, char **)" .
   [0 0 0 0 0 0 0 0 0 0 0 0 0 0 0 0 1])
  ("while" .
   [35 0 0 0 0])
  ("0" .
   [178])
  ("tmp" .
   [108 0 0])
  ("list" .
   [42 0 0 0])
  ("include" .
   [49 0 0 0 0 0 0])
  ("new" .
   [13 0 4])
  ("put_selected" .
   [0 0 0 0 0 0 0 1 0 0 0 1])
  ("put_on" .
   [3 0 0 0 0 0])
  ("free" .
   [17 0 0 0])
  ("h" .
   [14])
  ("next" .
   [17 0 2 4])
  ("SUCCESS" .
   [5 1 7 0 0 0 2])
  ("exit" .
   [10 0 0 0])
  ("(int __status)" .
   [0 0 0 0 0 0 0 0 0 0 0 0 0 1])
  ("t_string" .
   [5 0 1 1 0 0 0 0])
  ("st" .
   [51 0])
  ("cmd" .
   [18 1 2])
  ("c_pos" .
   [13 0 0 0 8])
  ("my_insert" .
   [1 0 0 0 0 0 2 0 0])
  ("c_end" .
   [5 0 0 1 4])
  ("res" .
   [11 0 0])
  ("malloc" .
   [5 0 0 1 0 1])
  ("s1" .
   [10 0])
  ("s2" .
   [15 0])
  ("my_append" .
   [0 0 0 0 0 0 3 0 0])
  ("j" .
   [15])
  ("signal" .
   [0 0 1 0 0 4])
  ("my_signal" .
   [0 0 0 0 0 1 0 0 0])
  ("msg" .
   [1 0 0])
  ("my_fatal" .
   [1 0 0 0 0 0 0 0])
  ("my_fatal_tc" .
   [1 0 0 0 0 0 0 0 0 0 0])
  ("cap" .
   [4 0 0])
  ("ret" .
   [4 0 0])
  ("my_tputs" .
   [1 0 0 1 0 1 0 1])
  ("my_put_param" .
   [0 0 0 0 0 0 0 0 0 0 0 1])
  ("SCREEN" .
   [0 1 0 0 0 0])
  ("tgetflag" .
   [1 0 0 0 0 0 0 1])
  ("reti" .
   [2 0 0 0])
  ("cols" .
   [2 0 0 0])
  ("tgetnum" .
   [0 0 0 0 0 0 1])
  ("(char *)" .
   [0 0 0 0 0 0 0 1])
  ("rewind" .
   [0 0 0 1 0 0])
  ("re_display" .
   [0 0 0 0 1 1 0 0 0 0])
  ("C" .
   [2])
  ("u" .
   [1])
  ("in" .
   [2 1])
  ("my_printf" .
   [8 0 0 0 5 3 0 2 6])
  ("get_next_line" .
   [0 0 0 2 2 0 0 0 0 0 0 0 3])
  ("my_memset" .
   [3 0 0 0 0 0 0 0 0])
  ("cmds" .
   [18 0 0 1])
  ("opt" .
   [0 0 1])
  ("MLINE" .
   [0 0 0 0 1])
  ("tab" .
   [3 0 0])
  ("s_bg" .
   [3 0 1 0])
  ("pid" .
   [9 0 0])
  ("t_bg" .
   [1 0 3 0])
  ("env" .
   [17 0 1])
  ("builtin_center" .
   [0 0 0 0 0 0 0 0 0 1 1 0 0 0])
  ("termios_p" .
   [0 0 0 0 0 0 0 0 3])
  ("tcgetattr" .
   [0 0 1 0 0 0 0 0 0])
  ("()" .
   [0 1])
  ("tcsetattr" .
   [0 0 0 0 0 0 0 0 1])
  ("set_rawmode" .
   [1 0 0 1 0 0 0 0 0 0 0])
  ("27" .
   [1 0])
  ("PWD" .
   [2 0 0])
  ("FILES" .
   [1 0 0 0 0])
  ("local" .
   [28 0 0 0 0])
  ("function" .
   [11 0 0 0 0 0 0 1])
  ("espaces_et_mot_clefs" .
   [0 0 0 0 0 0 0 0 0 0 0 0 0 0 0 0 0 0 0 1])
  ("SFILE" .
   [3 0 1 0 0])
  ("keyword_spaces" .
   [0 0 0 1 0 0 0 0 0 0 0 0 0 0])
  (".keytmp" .
   [2 0 0 0 0 0 0])
  (".keytmp.norme" .
   [2 0 1 2 0 0 0 0 0 0 0 0 0])
  ("pcregrep" .
   [0 0 1 0 0 0 0 0])
  ("a-z" .
   [2 0 0])
  ("a-zA-Z_" .
   [1 0 0 0 0 0 0])
  ("-vE" .
   [2 0 0])
  ("TMP2" .
   [2 0 0 0])
  ("print_error" .
   [0 0 0 0 0 0 0 1 0 0 0])
  ("STR" .
   [1 0 0])
  ("HFILE" .
   [1 0 0 0 0])
  ("function_params" .
   [0 0 0 0 0 0 0 0 0 0 0 0 0 1 0])
  ("prompt" .
   [3 0 1 1 0 1])
  ("t_prcor" .
   [0 0 0 0 0 0 1])
  ("t_prcode" .
   [0 0 1 1 0 0 0 0])
  ("minishell2" .
   [0 0 0 0 1 0 0 0 0 0])
  ("processor" .
   [0 0 0 0 0 0 0 1 0])
  ("get_home" .
   [0 0 0 0 0 0 1 0])
  ("ignorethis" .
   [0 0 0 0 1 0 0 0 0 1])
  ("my_getpwd" .
   [0 0 0 0 0 0 0 0 1])
  ("my_getwd" .
   [1 0 0 0 0 0 0 0])
  ("my_str_copy" .
   [3 0 0 0 0 0 0 0 0 0 0])
  ("envi" .
   [3 0 0 1])
  ("free_or_not" .
   [0 0 0 0 0 1 0 0 0 0 1])
  ("ap" .
   [3 0])
  ("va_list" .
   [0 0 1 0 0 0 0])
  ("GtkWidget" .
   [0 0 0 2 0 0 0 0 1])
  ("widget" .
   [1 0 0 0 0 0])
  ("data" .
   [4 0 0 0])
  ("gint" .
   [1 0 0 0])
  ("count" .
   [4 0 0 0 0])
  ("buf" .
   [5 0 0])
  ("label" .
   [3 0 0 0 0])
  ("count_stat" .
   [0 0 0 1 1 0 0 0 0 1])
  ("my_plus" .
   [3 0 0 0 0 0 0])
  ("button1" .
   [5 0 0 0 0 0 0])
  ("button2" .
   [2 0 0 0 0 0 0])
  ("gpointer" .
   [2 0 0 0 0 0 0 0])
  ("gtk" .
   [1 0 0])
  (".plan" .
   [5 0 0 0 0])
  ("parse_planner" .
   [0 0 0 1 0 0 0 0 0 0 0 0 0])
  ("LOGIN" .
   [5 0 0 0 0])
  ("SALT" .
   [2 0 0 0])
  ("zenity" .
   [2 0 0 0 1 0])
  ("openssl" .
   [0 0 0 0 1 0 0])
  ("enc" .
   [1 0 0])
  ("-base64" .
   [1 0 0 0 0 0 0])
  ("get_login" .
   [0 0 0 0 0 0 0 0 1])
  ("CREDS" .
   [1 0 0 0 0])
  ("wget" .
   [1 0 0 0])
  ("parse_planning" .
   [0 0 0 0 1 0 0 0 0 0 0 0 0 0])
  ("need_token" .
   [0 0 0 0 0 1 0 0 0 0])
  ("--post-data" .
   [1 0 0 0 0 0 0 0 0 0 0])
  ("-q" .
   [1 0])
  ("-O" .
   [2 0])
  ("MAINDIR" .
   [4 0 0 0 1 0 4])
  ("-n" .
   [3 0])
  ("SUPERDATE" .
   [0 0 1 1 0 0 0 0 0])
  ("MAINDIR/dates" .
   [1 0 0 0 1 0 0 0 0 0 0 0 1])
  ("s/://" .
   [1 0 0 0 0])
  ("MINILINE" .
   [2 0 0 3 1 0 0 0])
  ("MAINDIR/tmp" .
   [2 0 2 1 0 0 0 0 1 0 0])
  ("tail" .
   [2 0 0 0])
  ("MODULE" .
   [3 0 1 1 2 0])
  ("MODULEpppp" .
   [1 0 0 0 0 0 0 0 0 0])
  ("EVENT-3" .
   [2 0 0 0 0 0 0])
  ("2," .
   [1 0])
  ("cut" .
   [1 0 0])
  ("-d" .
   [4 0])
  ("ROOM" .
   [2 0 0 0])
  ("s/:/" .
   [1 0 0 0])
  ("-lt" .
   [4 0 0])
  ("-gt" .
   [1 0 0])
  ("fi" .
   [2 0])
  ("TOKEN" .
   [8 0 0 0 2])
  ("CODEACTI" .
   [0 0 0 0 0 0 1 0])
  ("CODEEVENT" .
   [0 0 1 0 0 0 0 0 0])
  ("CODEINST" .
   [0 0 0 0 1 0 0 0])
  ("YEAR" .
   [4 0 0 0])
  ("&&" .
   [1 0])
  ("--text" .
   [2 0 0 0 0 0])
  ("EVENTS" .
   [2 0 0 0 0 1])
  ("one_token" .
   [0 0 0 1 0 0 0 0 0])
  ("multi_token" .
   [0 0 0 1 0 0 0 0 0 0 0])
  ("LIST" .
   [1 0 0 0])
  ("TOKEN_LIST" .
   [4 0 5 1 0 0 0 0 0 6])
  ("--column" .
   [0 0 0 0 1 1 0 0])
  ("Module" .
   [1 0 0 0 0 0])
  ("--print-column" .
   [0 0 0 0 0 0 1 1 0 0 0 0 0 0])
  ("Date" .
   [1 0 0 0])
  ("Time" .
   [2 0 0 0])
  ("HELLOMOTO" .
   [0 0 1 0 0 0 0 0 0])
  ("--entry" .
   [0 0 0 0 0 0 1])
  ("token" .
   [2 0 0 0 0])
  ("tr" .
   [1 0])
  ("have_token" .
   [0 0 0 0 1 0 0 0 0 0])
  ("RET" .
   [12 0 0])
  ("EVENT+9" .
   [1 0 0 0 0 0 0])
  ("CODMOD" .
   [1 0 0 1 0 0])
  ("CODINST" .
   [0 0 3 0 0 0 1])
  ("CODEVENT" .
   [0 0 1 0 2 0 0 0])
  ("EVENT+10" .
   [1 0 0 0 0 0 0 0])
  ("EVENT+11" .
   [1 0 0 0 0 0 0 0])
  ("EVENT+12" .
   [1 0 0 0 0 0 0 0])
  ("EVENT+13" .
   [1 0 0 0 0 0 0 0])
  ("CODACTI" .
   [0 0 1 0 2 0 1])
  ("MAINDIR/plantmp" .
   [0 0 0 0 0 0 0 0 0 0 2 0 0 0 0])
  ("cs" .
   [17 0])
  ("init_env" .
   [0 0 1 0 0 0 0 0])
  ("TEMP" .
   [1 0 0 0])
  ("proxyoff" .
   [0 0 0 1 0 0 0 0])
  ("proxy" .
   [0 0 0 1 0])
  ("size" .
   [1 0 0 0])
  ("my_put" .
   [0 0 0 0 0 1])
  ("57" .
   [1 0])
  ("jg" .
   [6 0])
  ("get_grid_line" .
   [0 0 0 0 0 0 0 0 0 0 0 0 1])
  ("ku" .
   [4 0])
  ("verbose" .
   [0 0 1 2 0 0 0])
  ("gg" .
   [3 0])
  ("cpid" .
   [1 0 1 0])
  ("sync" .
   [1 0 0 0])
  ("my_putnbr" .
   [0 0 0 0 0 0 0 0 1])
  ("handle_child_end" .
   [0 1 0 0 0 0 0 0 0 0 0 0 0 0 0 0])
  ("g_prompt" .
   [0 0 0 2 0 0 0 1])
  ("g_com_pipe_end" .
   [2 0 0 0 0 0 0 0 0 0 0 0 0 5])
  ("expipe" .
   [0 0 0 0 0 1])
  ("execv" .
   [1 0 0 0 0])
  ("suseconds_t" .
   [0 0 1 0 0 0 0 0 0 0 0])
  ("pipefd" .
   [0 0 1 0 0 1])
  ("Sun" .
   [0 0 1])
  ("heredoc" .
   [0 0 0 0 1 0 0])
  ("SIGUSR2" .
   [1 0 0 0 1 0 0])
  ("usleep" .
   [1 0 0 0 0 1])
  ("SIGUSR1" .
   [3 0 0 0 0 0 1])
  ("10000" .
   [1 0 0 0 0])
  ("50" .
   [2 0])
  ("100" .
   [5 0 0])
  ("my_strcmp" .
   [0 0 0 0 0 0 0 0 1])
  ("ptr" .
   [1 0 0])
  ("shift" .
   [2 0 0 0 0])
  ("ALLOWED_U" .
   [1 0 3 0 0 0 0 0 0])
  ("USER" .
   [1 0 0 0])
  ("PORT" .
   [1 0 0 0])
  ("img" .
   [2 0 0])
  ("get_file" .
   [1 0 0 0 0 0 0 0])
  ("open" .
   [1 0 0 0])
  ("send_str" .
   [0 0 0 0 1 0 0 1])
  ("send_file" .
   [0 0 0 0 0 0 0 0 1])
  ("temp" .
   [3 0 0 0])
  ("v_mem" .
   [7 0 0 0 3])
  ("MEM_SIZE" .
   [1 0 5 3 1 1 0 0])
  ("Tue" .
   [0 0 1])
  ("op" .
   [1 0])
  ("tmp2" .
   [2 0 0 0])
  ("tmp_cod" .
   [0 1 0 0 0 0 2])
  ("48" .
   [1 0])
  ("printed" .
   [0 0 1 0 1 0 0])
  ("tion" .
   [2 0 0 0])
  ("debug" .
   [0 0 0 0 1])
  ("neg" .
   [2 0 0])
  ("t_alive" .
   [0 0 0 0 1 0 0])))
